<svg xmlns="http://www.w3.org/2000/svg" viewBox="0 0 257.72 113.39">
    <g class="i">
        <rect y="0.3" width="20.4" height="3.59"/>
        <rect y="8.73" width="20.4" height="3.59"/>
        <rect y="17.15" width="20.4" height="3.59"/>
        <rect y="25.57" width="20.4" height="3.59"/>
        <rect y="33.99" width="20.4" height="3.59"/>
        <rect y="42.42" width="20.4" height="3.59"/>
        <rect y="50.84" width="20.4" height="3.59"/>
        <rect y="59.26" width="20.4" height="3.59"/>
        <rect y="67.69" width="20.4" height="3.59"/>
        <rect y="76.11" width="20.4" height="3.59"/>
        <rect y="84.53" width="20.4" height="3.59"/>
        <rect y="92.95" width="20.4" height="3.59"/>
        <rect y="101.37" width="20.4" height="3.59"/>
        <rect y="109.8" width="20.4" height="3.59"/>
    </g>

    <g class="w">
        <polygon points="30.15 0.31 63.23 84.95 74.17 113.14 76.02 108.4 33.96 0.31 30.15 0.31"/>
        <polygon points="39.15 0.31 78.62 101.75 80.53 96.85 42.96 0.31 39.15 0.31"/>
        <polygon points="48.15 0.31 83.13 90.21 85.05 85.31 74.09 57.16 74.07 57.22 51.85 0.31 48.15 0.31"/>
        <polygon points="76.69 50.51 87.64 78.66 89.56 73.76 78.61 45.61 76.69 50.51"/>
        <polygon points="81.2 38.96 92.16 67.11 94.07 62.21 83.12 34.07 81.2 38.96"/>
        <polygon points="85.73 27.41 96.69 55.52 96.73 55.41 108.08 84.6 118.8 112.07 120.67 107.28 87.68 22.6 85.73 27.41"/>
        <polygon points="90.31 16.08 123.24 100.71 125.16 95.81 92.26 11.27 90.31 16.08"/>
        <polygon points="96.82 0 96.67 0.38 94.9 4.73 127.75 89.16 129.36 85.05 129.67 84.26 96.82 0"/>
        <polygon points="121.48 49.89 132.27 77.61 134.18 72.72 123.38 44.94 121.48 49.89"/>
        <polygon points="125.95 38.22 136.78 66.07 138.7 61.17 127.84 33.27 125.95 38.22"/>
        <polygon points="130.41 26.55 141.29 54.52 143.21 49.62 132.31 21.6 130.41 26.55"/>
        <polygon points="134.88 14.88 145.81 42.98 147.72 38.08 136.77 9.93 134.88 14.88"/>
        <polygon points="140.45 0.31 139.34 3.21 150.32 31.43 152.24 26.53 142.03 0.31 140.45 0.31"/>
        <polygon points="147.22 0.31 154.84 19.88 156.75 14.98 151.04 0.31 147.22 0.31"/>
        <polygon points="155.97 0.31 159.22 8.67 161.13 3.77 159.78 0.31 155.97 0.31"/>        
    </g>

    <g class="d">
        <rect x="173.93" y="0.33" width="3.56" height="112.35"/>
        <rect x="182.03" y="0.33" width="3.56" height="112.35"/>
        <rect x="190.14" y="0.33" width="3.56" height="112.35"/>
        <path d="M201.8.33V112.68h-3.56V.33h3.56Z"/>
        <path d="M206.35.45v112c1.19-.09,2.38-.2,3.56-.35V.8c-1.18-.15-2.37-.27-3.56-.35"/>
        <path d="M214.45,1.59V111.36c1.2-.25,2.38-.53,3.56-.85V2.44c-1.17-.32-2.36-.6-3.56-.86"/>
        <path d="M222.56,3.9V109.05c1.2-.44,2.39-.91,3.56-1.43V5.33c-1.17-.52-2.36-1-3.56-1.43"/>
        <path d="M230.66,7.62v97.73q1.81-1,3.56-2.16V9.79q-1.74-1.16-3.56-2.17"/>
        <path d="M238.77,13.14v86.7q1.83-1.49,3.56-3.17V16.34q-1.72-1.68-3.56-3.19"/>
        <path d="M246.87,21.52v70A48.08,48.08,0,0,0,250.43,86V27a48.09,48.09,0,0,0-3.56-5.48"/>
        <path d="M255,37.77V75.29a65.48,65.48,0,0,0,0-37.52"/>
    </g>
</svg>